…
The importance of the `read_csv` function is perhaps better understood from an historical perspective. R's built in `read.csv` function similarly reads CSV files, but the `read_csv` function in `readr` builds on that by removing some of the quirks and "gotchas" of `read.csv` as well as dramatically optimizing the speed with which it can read data into R. The `read_csv` function also adds some nice user-oriented features like a progress meter and a compact method for specifying column types.

The only required argument to `read_csv` is a character string specifying the path to the file to read. A typical call to `read_csv` will look as follows.


```r
library(readr)
teams <- read_csv("data/team_standings.csv")
Parsed with column specification:
cols(
  Standing = col_integer(),
  Team = col_character()
)
teams
# A tibble: 32 x 2
   Standing        Team
      <int>       <chr>
 1        1       Spain
 2        2 Netherlands
 3        3     Germany
 4        4     Uruguay
 5        5   Argentina
 6        6      Brazil
 7        7       Ghana
 8        8    Paraguay
 9        9       Japan
10       10       Chile
# ... with 22 more rows
```
…
With the functions in the `readr` package, you can also read in flat files from secure urls (ones that starts with `https:`). (This is not true with the `read.table` family of functions from base R.) One example where it is common to find flat files on secure sites is on GitHub. If you find a file with a flat file extension in a GitHub repository, you can usually click on it and then choose to view the "Raw" version of the file, and get to the flat file version of the file. 

For example, the CDC Epidemic Prediction Initiative has a GitHub repository with data on Zika cases, including files on cases in Brazil. When we wrote this, the most current file was available [here](https://github.com/cdcepi/zika/blob/master/Brazil/COES_Microcephaly/data/COES_Microcephaly-2016-06-25.csv), with the raw version (i.e., a flat file) available [by clicking the "Raw" button on the top right of the first site](https://github.com/cdcepi/zika/raw/master/Brazil/COES_Microcephaly/data/COES_Microcephaly-2016-06-25.csv). 


```r
zika_file <- paste0("https://raw.githubusercontent.com/cdcepi/zika/master/",
                    "Brazil/COES_Microcephaly/data/COES_Microcephaly-2016-06-25.csv")
zika_brazil <- read_csv(zika_file)

zika_brazil %>%
  select(location, value, unit)
# A tibble: 210 x 3
                  location value  unit
                     <chr> <int> <chr>
 1             Brazil-Acre     2 cases
 2          Brazil-Alagoas    75 cases
 3            Brazil-Amapa     7 cases
 4         Brazil-Amazonas     8 cases
 5            Brazil-Bahia   263 cases
 6            Brazil-Ceara   124 cases
 7 Brazil-Distrito_Federal     5 cases
 8   Brazil-Espirito_Santo    13 cases
 9            Brazil-Goias    14 cases
10         Brazil-Maranhao   131 cases
# ... with 200 more rows
```
…
As a note, since hurricane storm names repeat at regular intervals until they are retired, to get a separate summary for each unique storm, this example requires grouping by both `storm_name` and `year`. 

Even though applying the `group_by` function does not cause a noticeable change to the data frame itself, you'll notice the difference in grouped and ungrouped data frames when you use `summarize` on the data frame. If a data frame is grouped, all summaries are calculated and given separately for each unique value of the grouping variable:


```r
ext_tracks %>%
  group_by(storm_name, year) %>%
  summarize(n_obs = n(),
            worst_wind = max(max_wind),
            worst_pressure = min(min_pressure))
# A tibble: 378 x 5
# Groups:   storm_name [?]
   storm_name  year n_obs worst_wind worst_pressure
        <chr> <int> <int>      <dbl>          <dbl>
 1    ALBERTO  1988    13         35           1002
 2    ALBERTO  1994    31         55            993
 3    ALBERTO  2000    87        110            950
 4    ALBERTO  2006    37         60            969
 5    ALBERTO  2012    20         50            995
 6       ALEX  1998    26         45           1002
 7       ALEX  2004    25        105            957
 8       ALEX  2010    30         90            948
 9    ALLISON  1989    28         45            999
10    ALLISON  1995    33         65            982
# ... with 368 more rows
```
…
From Figure \@ref(fig:windhistogram), we can see that only two storms had maximum wind speeds at or above 160 knots (we'll check this later with some other `dplyr` functions).

T> You cannot make changes to a variable that is being used to group a dataframe. If you try, you will get the error `Error: cannot modify grouping variable`. If you get this error, use the `ungroup` function to remove grouping within a data frame, and then you will be able to mutate any of the variables in the data.

### Selecting and filtering data

When cleaning up data, you will need to be able to create subsets of the data, by selecting certain columns or filtering down to certain rows. These actions can be done using the `dplyr` functions `select` and `filter`. 

The `select` function subsets certain columns of a data frame. The most basic way to use `select` is select certain columns by specifying their full column names. For example, to select the storm name, date, time, latitude, longitude, and maximum wind speed from the `ext_tracks` dataset, you can run:


```r
ext_tracks %>%
  select(storm_name, month, day, hour, year, latitude, longitude, max_wind)
# A tibble: 11,824 x 8
   storm_name month   day  hour  year latitude longitude max_wind
        <chr> <chr> <chr> <chr> <int>    <dbl>     <dbl>    <int>
 1    ALBERTO    08    05    18  1988     32.0      77.5       20
 2    ALBERTO    08    06    00  1988     32.8      76.2       20
 3    ALBERTO    08    06    06  1988     34.0      75.2       20
 4    ALBERTO    08    06    12  1988     35.2      74.6       25
 5    ALBERTO    08    06    18  1988     37.0      73.5       25
 6    ALBERTO    08    07    00  1988     38.7      72.4       25
 7    ALBERTO    08    07    06  1988     40.0      70.8       30
 8    ALBERTO    08    07    12  1988     41.5      69.0       35
 9    ALBERTO    08    07    18  1988     43.0      67.5       35
10    ALBERTO    08    08    00  1988     45.0      65.5       35
# ... with 11,814 more rows
```

There are several functions you can use with `select` that give you more flexibility, and so allow you to select columns without specifying the full names of each column. For example, the `starts_with` function can be used within a `select` function to pick out all the columns that start with a certain text string. As an example of using `starts_with` in conjunction with `select`, in the `ext_tracks` hurricane data, there are a number of columns that say how far from the storm center winds of certain speeds extend. Tropical storms often have asymmetrical wind fields, so these wind radii are given for each quadrant of the storm (northeast, southeast, northwest, and southeast of the storm's center). All of the columns with the radius to which winds of 34 knots or more extend start with "radius_34". To get a dataset with storm names, location, and radii of winds of 34 knots, you could run:


```r
ext_tracks %>%
  select(storm_name, latitude, longitude, starts_with("radius_34"))
# A tibble: 11,824 x 7
   storm_name latitude longitude radius_34_ne radius_34_se radius_34_sw
        <chr>    <dbl>     <dbl>        <int>        <int>        <int>
 1    ALBERTO     32.0      77.5            0            0            0
 2    ALBERTO     32.8      76.2            0            0            0
 3    ALBERTO     34.0      75.2            0            0            0
 4    ALBERTO     35.2      74.6            0            0            0
 5    ALBERTO     37.0      73.5            0            0            0
 6    ALBERTO     38.7      72.4            0            0            0
 7    ALBERTO     40.0      70.8            0            0            0
 8    ALBERTO     41.5      69.0          100          100           50
 9    ALBERTO     43.0      67.5          100          100           50
10    ALBERTO     45.0      65.5           NA           NA           NA
# ... with 11,814 more rows, and 1 more variables: radius_34_nw <int>
```
…
